…
- 5.6195803% of precipitation data is missing.
- 14.689601% of snowfall data is missing.
- 43.7102532% of maximum temperature data is missing.
- 43.7126422% of minimum temperature data is missing.

``` r
ny_noaa_clean %>%
  group_by(snow) %>%
  summarize(n_obs = n()) %>%
  arrange(desc(n_obs))
```

    ## # A tibble: 282 × 2
    ##     snow   n_obs
    ##    <dbl>   <int>
    ##  1     0 2008508
    ##  2    NA  381221
    ##  3    25   31022
    ##  4    13   23095
    ##  5    51   18274
    ##  6    76   10173
    ##  7     8    9962
    ##  8     5    9748
    ##  9    38    9197
    ## 10     3    8790
    ## # … with 272 more rows
…
